{
    "openapi": "3.0.3",
    "info": {
      "title": "Documentation Api  Authentification",
      "description": "This is an application test tech asked documentation using NodeJs, Express, mongoose and MongoDb",
      "contact": {
        "email": "bailombs@live.fr"
      },
      "version": "1.0.0"
    },
    "servers": [
      {
        "url": "http://localhost:5000/api/auth"
      }
    ],
    "tags": [
      {
        "name": "user",
        "description": "Operations about user"
      }
    ],
    "paths": {
      "/register": {
        "post": {
          "tags": [
            "user"
          ],
          "summary": "Create user",          
          "operationId": "createUser",
          "requestBody": {
            "description": "Created user object",
            "content": {
              "application/json": {
                "schema": {
                  "$ref": "#/components/schemas/Register"
                }
              },
              "application/xml": {
                "schema": {
                  "$ref": "#/components/schemas/Register"
                }
              },
              "application/x-www-form-urlencoded": {
                "schema": {
                  "$ref": "#/components/schemas/Register"
                }
              }
            },
            "required": true
          },
          "responses": {
            "201": {
              "description": "successful operation"
            },
            "400": {
              "description": "operation invalid"
            }
          }
        }
      },
      "/login": {
        "post": {
          "tags": [
            "user"
          ],
          "summary": "Log user into the system",       
          "operationId": "loginUser",
          "requestBody": {
            "description": "the user for login",
            "content": {
              "application/json": {
                "schema": {
                  "$ref": "#/components/schemas/Login"
                }
              },
              "application/xml": {
                "schema": {
                  "$ref": "#/components/schemas/Login"
                }
              },
              "application/x-www-form-urlencoded": {
                "schema": {
                  "$ref": "#/components/schemas/Login"
                }
              }
            },
            "required": true
          },
          "responses": {
            "200": {
              "description": "successful operation"
            },
            "400": {
              "description": "Invalid Fields"
            },
            "401": {
              "description": "Invalid username/password supplied"
            },
            "500": {
              "description": "Internal Server Error"
            }
          }
        }
      },
      "/users": {
        "get": {
          "security": [
            {
              "bearerAuth": []
            }
          ],
          "tags": [
            "users"
          ],
          "summary": "Logged with authentication token",
          "description": "Get all users",
          "operationId": "",
          "parameters": [
            {
              "in": "header",
              "name": "token",
              "schema": {
                "type": "string"
              },
              "required": true
            }
          ],
          "responses": {
            "200": {
              "description": "successful operation",
              "content": {
                "application/json": {
                  "schema": {
                    "type": "array",
                    "items": {
                      "$ref": "#/components/schemas/UsersResponse"
                    }
                  }
                }
              }
            }
          }
        }
      }
    },
    "components": {
      "securitySchemes": {
        "bearerAuth": {
          "type": "http",
          "scheme": "bearer",
          "bearerFormat": "JWT"
        }
      },
      "schemas": {
        "Register": {
          "type": "object",
          "properties": {
            "firstName": {
              "type": "string",
              "example": "John"
            },
            "lastName": {
              "type": "string",
              "example": "James"
            },
            "email": {
              "type": "string",
              "example": "john@email.com"
            },
            "password": {
              "type": "string",
              "example": "12345"
            }
          },
          "xml": {
            "name": "register"
          }
        },
        "Login": {
          "type": "object",
          "properties": {
            "email": {
              "type": "string",
              "example": "john@email.com"
            },
            "password": {
              "type": "string",
              "example": "12345"
            }
          },
          "xml": {
            "name": "login"
          }
        },
        "UsersResponse": {
          "type": "object",
          "properties": {
            "id": {
              "type": "string"
            },
            "firstName": {
              "type": "string"
            },
            "lastName": {
              "type": "string"
            },
            "email": {
              "type": "string"
            }
          }
        }
      }
    }
  }